module gitlab.com/NobbZ/gitlab-releaser

go 1.12

require (
	github.com/pkg/errors v0.8.1 // indirect
	github.com/stretchr/testify v1.4.0 // indirect
	github.com/xanzy/go-gitlab v0.20.0
	go.uber.org/atomic v1.4.0 // indirect
	go.uber.org/multierr v1.1.0 // indirect
	go.uber.org/zap v1.10.0
)
